es/dis/examenordinaria/dto/DatosEspecificoDto.class
es/dis/examenordinaria/Main.class
es/dis/examenordinaria/utils/Methods.class
es/dis/examenordinaria/dto/BusquedaResponseErrorDto.class
es/dis/examenordinaria/dto/LocalizaIpDto.class
es/dis/examenordinaria/dto/BusquedaResponseDto.class
es/dis/examenordinaria/controller/ApiController.class
es/dis/examenordinaria/service/ApiService.class
es/dis/examenordinaria/dto/BuscarIpDto.class
